<?xml version="1.0" encoding="UTF-8" standalone="no"?>
<!-- Created with Inkscape (http://www.inkscape.org/) -->

<svg
   xmlns:dc="http://purl.org/dc/elements/1.1/"
   xmlns:cc="http://creativecommons.org/ns#"
   xmlns:rdf="http://www.w3.org/1999/02/22-rdf-syntax-ns#"
   xmlns:svg="http://www.w3.org/2000/svg"
   xmlns="http://www.w3.org/2000/svg"
   xmlns:sodipodi="http://sodipodi.sourceforge.net/DTD/sodipodi-0.dtd"
   xmlns:inkscape="http://www.inkscape.org/namespaces/inkscape"
   width="200mm"
   height="59.341385mm"
   viewBox="0 0 200 59.341384"
   version="1.1"
   id="svg8"
   inkscape:version="0.92.4 5da689c313, 2019-01-14"
   sodipodi:docname="logo.svg">
  <defs
     id="defs2">
    <marker
       inkscape:stockid="TriangleOutS"
       orient="auto"
       refY="0"
       refX="0"
       id="TriangleOutS-2"
       style="overflow:visible"
       inkscape:isstock="true">
      <path
         id="path1002-5"
         d="M 5.77,0 -2.88,5 V -5 Z"
         style="fill:#00aa88;fill-opacity:1;fill-rule:evenodd;stroke:#00aa88;stroke-width:1.00000003pt;stroke-opacity:1"
         transform="scale(0.2)"
         inkscape:connector-curvature="0" />
    </marker>
    <marker
       inkscape:stockid="TriangleOutS"
       orient="auto"
       refY="0"
       refX="0"
       id="TriangleOutS"
       style="overflow:visible"
       inkscape:isstock="true">
      <path
         id="path1002"
         d="M 5.77,0 -2.88,5 V -5 Z"
         style="fill:#00aa88;fill-opacity:1;fill-rule:evenodd;stroke:#00aa88;stroke-width:1.00000003pt;stroke-opacity:1"
         transform="scale(0.2)"
         inkscape:connector-curvature="0" />
    </marker>
  </defs>
  <sodipodi:namedview
     id="base"
     pagecolor="#ffffff"
     bordercolor="#666666"
     borderopacity="1.0"
     inkscape:pageopacity="0.0"
     inkscape:pageshadow="2"
     inkscape:zoom="1.4142136"
     inkscape:cx="314.84155"
     inkscape:cy="111.54993"
     inkscape:document-units="mm"
     inkscape:current-layer="layer1"
     showgrid="false"
     inkscape:snap-object-midpoints="true"
     fit-margin-top="0"
     fit-margin-left="0"
     fit-margin-right="0"
     fit-margin-bottom="0"
     inkscape:window-width="2560"
     inkscape:window-height="1333"
     inkscape:window-x="0"
     inkscape:window-y="0"
     inkscape:window-maximized="1"
     inkscape:object-nodes="true"
     inkscape:snap-midpoints="true"
     inkscape:snap-page="true"
     inkscape:snap-bbox="true"
     inkscape:bbox-nodes="true" />
  <metadata
     id="metadata5">
    <rdf:RDF>
      <cc:Work
         rdf:about="">
        <dc:format>image/svg+xml</dc:format>
        <dc:type
           rdf:resource="http://purl.org/dc/dcmitype/StillImage" />
        <dc:title />
      </cc:Work>
    </rdf:RDF>
  </metadata>
  <g
     inkscape:label="Layer 1"
     inkscape:groupmode="layer"
     id="layer1"
     transform="translate(-50.345779,-51.050651)">
    <circle
       style="opacity:1;fill:#000000;fill-opacity:1;stroke:#000000;stroke-width:0.96499997;stroke-linecap:butt;stroke-linejoin:round;stroke-miterlimit:96.80001068;stroke-dasharray:none;stroke-dashoffset:1.82362199;stroke-opacity:1;paint-order:normal"
       id="path821"
       cx="119.87709"
       cy="120.76743"
       r="0" />
    <circle
       style="opacity:1;fill:#000000;fill-opacity:1;stroke:#000000;stroke-width:0.96499997;stroke-linecap:butt;stroke-linejoin:round;stroke-miterlimit:96.80001068;stroke-dasharray:none;stroke-dashoffset:1.82362199;stroke-opacity:1;paint-order:normal"
       id="path821-0"
       cx="177.0981"
       cy="149.92299"
       r="0" />
    <circle
       style="opacity:1;fill:#000000;fill-opacity:1;stroke:#000000;stroke-width:0.96499997;stroke-linecap:butt;stroke-linejoin:round;stroke-miterlimit:96.80001068;stroke-dasharray:none;stroke-dashoffset:1.82362199;stroke-opacity:1;paint-order:normal"
       id="path821-9"
       cx="167.05177"
       cy="213.35295"
       r="0" />
    <circle
       style="opacity:1;fill:#000000;fill-opacity:1;stroke:#000000;stroke-width:0.96499997;stroke-linecap:butt;stroke-linejoin:round;stroke-miterlimit:96.80001068;stroke-dasharray:none;stroke-dashoffset:1.82362199;stroke-opacity:1;paint-order:normal"
       id="path821-8"
       cx="103.62181"
       cy="223.39928"
       r="0" />
    <circle
       style="opacity:1;fill:#000000;fill-opacity:1;stroke:#000000;stroke-width:0.96499997;stroke-linecap:butt;stroke-linejoin:round;stroke-miterlimit:96.80001068;stroke-dasharray:none;stroke-dashoffset:1.82362199;stroke-opacity:1;paint-order:normal"
       id="path821-7"
       cx="74.466255"
       cy="166.17827"
       r="0" />
    <flowRoot
       xml:space="preserve"
       id="flowRoot2649"
       style="font-style:normal;font-variant:normal;font-weight:normal;font-stretch:normal;font-size:64px;line-height:1.25;font-family:Cantarell;-inkscape-font-specification:Cantarell;letter-spacing:0px;word-spacing:0px;fill:#000000;fill-opacity:1;stroke:none"
       transform="scale(0.26458333)"><flowRegion
         id="flowRegion2651"><rect
           id="rect2653"
           width="337.39096"
           height="390.92905"
           x="53.033009"
           y="342.68192" /></flowRegion><flowPara
         id="flowPara2655" /></flowRoot>    <g
       id="g916">
      <path
         d="m 145.3541,72.645341 q 0,4.777414 -3.27102,7.359801 -3.2495,2.560866 -9.31811,2.560866 h -3.70142 v 12.373933 h -3.65838 V 63.47787 h 8.15604 q 11.79289,0 11.79289,9.167471 z m -16.29055,6.778764 h 3.29254 q 4.8635,0 7.03701,-1.570952 2.1735,-1.570951 2.1735,-5.035653 0,-3.120383 -2.04439,-4.648295 -2.04438,-1.527912 -6.36988,-1.527912 h -4.08878 z"
         style="font-style:normal;font-variant:normal;font-weight:normal;font-stretch:normal;font-size:44.07272339px;line-height:1.25;font-family:'Open Sans';-inkscape-font-specification:'Open Sans';letter-spacing:0px;word-spacing:0px;fill:#ffffff;fill-opacity:1;stroke:none;stroke-width:0.6886363"
         id="path895"
         inkscape:connector-curvature="0" />
      <path
         d="m 159.01923,92.422115 q 0.94688,0 1.82919,-0.129119 0.88232,-0.15064 1.39879,-0.301279 v 2.733026 q -0.58103,0.279758 -1.72159,0.451917 -1.11903,0.193679 -2.02287,0.193679 -6.84332,0 -6.84332,-7.209161 V 74.130213 h -3.37862 v -1.721591 l 3.37862,-1.484872 1.50639,-5.035653 h 2.06591 v 5.466051 h 6.84332 v 2.776065 h -6.84332 v 13.880326 q 0,2.130468 1.01144,3.271022 1.01143,1.140554 2.77606,1.140554 z"
         style="font-style:normal;font-variant:normal;font-weight:normal;font-stretch:normal;font-size:44.07272339px;line-height:1.25;font-family:'Open Sans';-inkscape-font-specification:'Open Sans';letter-spacing:0px;word-spacing:0px;fill:#ffffff;fill-opacity:1;stroke:none;stroke-width:0.6886363"
         id="path897"
         inkscape:connector-curvature="0" />
      <path
         d="m 172.12484,94.939941 -8.95227,-23.585793 h 3.83054 l 5.07869,13.987925 q 1.72159,4.906534 2.02287,6.369886 h 0.17216 q 0.23672,-1.140554 1.48487,-4.712855 1.26967,-3.593821 5.65973,-15.644956 h 3.83054 l -8.95227,23.585793 z"
         style="font-style:normal;font-variant:normal;font-weight:normal;font-stretch:normal;font-size:44.07272339px;line-height:1.25;font-family:'Open Sans';-inkscape-font-specification:'Open Sans';letter-spacing:0px;word-spacing:0px;fill:#ffffff;fill-opacity:1;stroke:none;stroke-width:0.6886363"
         id="path899"
         inkscape:connector-curvature="0" />
      <path
         d="m 209.5264,72.645341 q 0,4.777414 -3.27102,7.359801 -3.24951,2.560866 -9.31811,2.560866 h -3.70142 v 12.373933 h -3.65838 V 63.47787 h 8.15603 q 11.7929,0 11.7929,9.167471 z m -16.29055,6.778764 h 3.29254 q 4.86349,0 7.037,-1.570952 2.17351,-1.570951 2.17351,-5.035653 0,-3.120383 -2.04439,-4.648295 -2.04439,-1.527912 -6.36989,-1.527912 h -4.08877 z"
         style="font-style:normal;font-variant:normal;font-weight:normal;font-stretch:normal;font-size:44.07272339px;line-height:1.25;font-family:'Open Sans';-inkscape-font-specification:'Open Sans';letter-spacing:0px;word-spacing:0px;fill:#00aa88;fill-opacity:1;stroke:none;stroke-width:0.6886363"
         id="path901"
         inkscape:connector-curvature="0" />
      <path
         d="m 211.82903,71.354148 h 3.83054 l 5.16477,13.449928 q 1.70007,4.605255 2.10895,6.649644 h 0.17216 q 0.27976,-1.097514 1.16207,-3.74446 0.90384,-2.668465 5.85341,-16.355112 h 3.83054 L 223.8156,98.210964 q -1.50639,3.981176 -3.52926,5.638206 -2.00135,1.67855 -4.92805,1.67855 -1.63551,0 -3.22798,-0.36583 v -2.86215 q 1.18359,0.25824 2.64694,0.25824 3.6799,0 5.25085,-4.131817 l 1.31272,-3.357102 z"
         style="font-style:normal;font-variant:normal;font-weight:normal;font-stretch:normal;font-size:44.07272339px;line-height:1.25;font-family:'Open Sans';-inkscape-font-specification:'Open Sans';letter-spacing:0px;word-spacing:0px;fill:#00aa88;fill-opacity:1;stroke:none;stroke-width:0.6886363"
         id="path903"
         inkscape:connector-curvature="0" />
    </g>
    <g
       transform="matrix(0.58774557,0,0,0.58774557,33.409837,67.416487)"
       id="g900">
      <circle
         r="8.3009834"
         cy="21.161243"
         cx="67.158867"
         id="path1788-5-2-64"
         style="opacity:1;fill:#00aa88;fill-opacity:1;stroke:none;stroke-width:1.68416798;stroke-linecap:round;stroke-linejoin:round;stroke-miterlimit:4;stroke-dasharray:none;stroke-dashoffset:0;stroke-opacity:1;paint-order:normal" />
      <circle
         r="14.581516"
         cy="39.365154"
         cx="124.07201"
         id="path1788-5-8-5"
         style="opacity:1;fill:#ffffff;fill-opacity:1;stroke:none;stroke-width:2.95841122;stroke-linecap:round;stroke-linejoin:round;stroke-miterlimit:4;stroke-dasharray:none;stroke-dashoffset:0;stroke-opacity:1;paint-order:normal" />
      <path
         inkscape:connector-curvature="0"
         id="path926-7"
         d="M 123.90255,2.4358125 88.728299,-8.814829 67.158864,21.161246 89.002482,50.938107 124.07201,39.365155"
         style="fill:none;stroke:#00aa88;stroke-width:7.01726055;stroke-linecap:round;stroke-linejoin:round;stroke-miterlimit:4;stroke-dasharray:none;stroke-opacity:1;marker-end:url(#TriangleOutS)" />
      <circle
         r="8.3009834"
         cy="-8.8148289"
         cx="88.728302"
         id="path1788-5-2-6"
         style="opacity:1;fill:#00aa88;fill-opacity:1;stroke:none;stroke-width:1.68416798;stroke-linecap:round;stroke-linejoin:round;stroke-miterlimit:4;stroke-dasharray:none;stroke-dashoffset:0;stroke-opacity:1;paint-order:normal" />
      <circle
         r="8.3009834"
         cy="2.4358125"
         cx="123.90255"
         id="path1788-5-2-2"
         style="opacity:1;fill:#00aa88;fill-opacity:1;stroke:none;stroke-width:1.68416798;stroke-linecap:round;stroke-linejoin:round;stroke-miterlimit:4;stroke-dasharray:none;stroke-dashoffset:0;stroke-opacity:1;paint-order:normal" />
      <circle
         r="8.3009834"
         cy="50.938107"
         cx="89.00248"
         id="path1788-5-2-7"
         style="opacity:1;fill:#00aa88;fill-opacity:1;stroke:none;stroke-width:1.68416798;stroke-linecap:round;stroke-linejoin:round;stroke-miterlimit:4;stroke-dasharray:none;stroke-dashoffset:0;stroke-opacity:1;paint-order:normal" />
    </g>
  </g>
</svg>
